<svg xmlns="http://www.w3.org/2000/svg" viewBox="0 0 134.96 115.45">
  <path fill="#fff" d="M45.7 2.84l-35.6 53.9 83.73 55.3 41.13-62.27L59.6 0"/>
  <path fill="#e7e7e8" d="M16.72 54.65l17.44-26.4 27.5 18.14L44.2 72.8zM48.28 75.5l35.18-53.26 2.14 1.4L50.43 76.9zm4.64 3.05L88.1 25.3l2.1 1.4L55 79.97zm4.62 3.06L92.7 28.4l2.2 1.42-35.1 53.24zm4.63 3.1l35.17-53.3 2.14 1.47-35.18 53.2zm4.63 3.08l35.17-53.23 2.14 1.4L69 89.15zm4.63 3.07l35.17-53.3 2.14 1.45-35.17 53.2zm4.62 3.06l35.18-53.25 2.14 1.4-35.17 53.2zm4.63 3.06l35.17-53.24 2.15 1.4-35.18 53.2zM85.3 100l35.2-53.25 2.15 1.4-35.17 53.27zm4.64 3.05L125.1 49.8l2.2 1.42-35.1 53.24zm-26.3-74.9C62.44 29.78 61 30.9 61 30.9l-3.2-2.16 1.1-1.7 1.6.66s.73-.4 1.4-1.4c.7-1.1.9-2.33.03-2.9-1.9-1.3-4.7 4.93-8.9 2.16-1.9-1.26-2.2-3.32-1.32-5.38l-2.3-1.48 1.3-1.95 2.1 1.38c1.2-1.5 2.6-2.42 2.6-2.42l2.98 2.1-1.05 1.6-1.6-.53s-.77.5-1.23 1.2c-.8 1.17-.7 2.1-.03 2.54 1.94 1.3 4.83-4.85 8.82-2.2 2.03 1.34 2.43 3.5 1.6 5.66l2.6 1.7-1.3 1.96-2.5-1.63z"/>
  <path fill="#f2f1f1" d="M45.7 2.84L59.6 0l-5.53 8.3"/>
  <path fill="#fff" d="M18.6 24.68L0 86.53l96.1 28.92 21.5-71.47-86.48-26.02"/>
  <path fill="#e7e7e8" d="M5.75 82.6l9.1-30.3 31.56 9.5-9.1 30.3zm36.23 10.9l18.38-61.1 2.46.74-18.38 61.12zm5.32 1.6L65.67 34l2.47.74-18.4 61.12zm5.3 1.6l18.38-61.1 2.46.74-18.4 61.1zm5.3 1.6l18.4-61.1 2.45.74-18.4 61.1zm5.32 1.6L81.6 38.8l2.46.74-18.38 61.1zm5.3 1.6L86.9 40.4l2.48.74-18.4 61.1zm5.32 1.6L92.22 42l2.46.73-18.38 61.1zm5.3 1.6l18.4-61.12 2.45.74-18.4 61.2zm5.32 1.6l18.4-61.12 2.45.74-18.3 61.2zm5.3 1.6l18.4-61.1 2.46.73-18.4 61.1z"/>
  <path fill="#f2f1f1" d="M18.6 24.68l12.52-6.72-2.9 9.6"/>
</svg>