<?xml version="1.0" encoding="UTF-8"?>
<!-- Generator: Adobe Illustrator 16.0.0, SVG Export Plug-In . SVG Version: 6.00 Build 0)  -->
<!DOCTYPE svg PUBLIC "-//W3C//DTD SVG 1.1//EN" "http://www.w3.org/Graphics/SVG/1.1/DTD/svg11.dtd">
<svg version="1.1" id="Calque_1" xmlns="http://www.w3.org/2000/svg" xmlns:xlink="http://www.w3.org/1999/xlink" x="0px" y="0px" width="595.278px" height="595.279px" viewBox="0 0 595.278 595.279" enable-background="new 0 0 595.278 595.279" xml:space="preserve">
<g>
	<defs>
		<rect id="SVGID_1_" width="595.278" height="595.279"/>
	</defs>
	<clipPath id="SVGID_2_">
		<use xlink:href="#SVGID_1_" overflow="visible"/>
	</clipPath>
	<path clip-path="url(#SVGID_2_)" fill="#F6F1EE" d="M297.639,0c164.384,0,297.641,133.258,297.641,297.641   c0,164.38-133.257,297.638-297.641,297.638C133.258,595.279,0,462.021,0,297.641C0,133.257,133.258,0,297.639,0"/>
	<path clip-path="url(#SVGID_2_)" fill-rule="evenodd" clip-rule="evenodd" fill="#1777B6" d="M146.389,303.35   c14.346,23.782,27.217,41.177,23.418,68.983c-3.704,26.907-2.229,55.211-14.724,79.924c-8.945,17.662,5.746,18.294,13.249,25.178   c29.288,26.908,67.178,15.998,100.548,24.58c25.144,6.353,62.03,32.096,69.03-26.243c1.224-10.543,16.543-13.537,28.316-13.902   c18.896-0.932,36.57,3.625,54.088,10.245c24.893,9.479,66.834-9.348,76.878-33.494c4.301-10.145-0.22-11.707-8.068-15.865   c-20.876-10.909-19.525-28.338-14.471-50.556c4.394-19.225,7.848-47.529-14.975-56.377c-20.97-8.183-7.597-16.098-2.95-20.921   c22.569-23.381,35.817-50.922,49.41-81.454c13.874-30.8-0.22-31.431-17.392-36.654c-63.411-19.722-121.516-49.89-174.631-91.565   c-20.092-15.998-37.514-10.943-38.99,15.565c-1.474,25.877-11.018,34.825-33.338,34.956c-8.852,0.135-17.547,2.994-21.472,12.608   c-12.869,31.065-31.014,17.028-46.837,4.923c-8.224-6.355-14.094-15.201-25.018-7.252c-12.024,8.548-4.646,17.129,0,26.509   c13.246,27.007,7.094,31.563-21.818,29.868c-6.026-0.534-11.049-2.861-15.569-5.589c-7.755-4.556-14.472-9.744-23.921-7.017   c-8.225,2.195-16.451,5.055-24.894,6.353c-11.302,1.695-26.746-4.257-26.369,17.029c0.251,18.193,5.273,31.331,25.145,36.52   C93.901,258.415,123.567,265.534,146.389,303.35"/>
	<path clip-path="url(#SVGID_2_)" fill="#1E8B66" d="M273.825,339.753c-17.156-17.156-17.157-45.069-0.002-62.225l-19.643-19.643   c-27.986,27.986-27.984,73.522,0.003,101.51c27.987,27.986,73.521,27.985,101.506,0l-19.641-19.642   C318.892,356.909,290.979,356.908,273.825,339.753"/>
	<path clip-path="url(#SVGID_2_)" fill="#2C3A57" d="M322.349,291.229c-9.602-9.602-25.222-9.599-34.823,0.002l34.819,34.819   C331.946,316.449,331.948,300.828,322.349,291.229"/>
	<path clip-path="url(#SVGID_2_)" fill="#2C3A57" d="M287.527,326.051c9.599,9.599,25.22,9.598,34.818-0.001l-34.819-34.819   C277.927,300.83,277.925,316.449,287.527,326.051"/>
	<path clip-path="url(#SVGID_2_)" fill="#1E8B66" d="M355.689,257.888c-27.987-27.987-73.521-27.991-101.51-0.003l19.643,19.644   c17.156-17.157,45.072-17.158,62.227-0.002c17.155,17.154,17.154,45.071-0.003,62.226l19.642,19.642   C383.678,331.406,383.676,285.874,355.689,257.888"/>
	<path clip-path="url(#SVGID_2_)" fill="#FB8221" d="M240.478,373.099c-35.541-35.542-35.54-93.375,0-128.915l-16.277-16.278   c-44.587,44.586-44.588,116.88,0.001,161.47c44.588,44.587,116.882,44.586,161.468-0.001l-16.278-16.277   C333.852,408.638,276.019,408.64,240.478,373.099"/>
	<path clip-path="url(#SVGID_2_)" fill="#FB8221" d="M224.201,227.906l16.277,16.278c35.544-35.544,93.376-35.544,128.918-0.003   c35.541,35.541,35.54,93.374-0.004,128.917l16.279,16.277c44.589-44.589,44.588-116.881,0-161.469   C341.082,183.318,268.79,183.317,224.201,227.906"/>
	<path clip-path="url(#SVGID_2_)" fill="#FFFFFF" d="M355.689,257.888c27.986,27.986,27.988,73.518-0.001,101.507l13.703,13.703   c35.544-35.544,35.545-93.376,0.004-128.917c-35.542-35.541-93.374-35.541-128.917,0.003l13.702,13.701   C282.169,229.897,327.702,229.901,355.689,257.888"/>
	<path clip-path="url(#SVGID_2_)" fill="#FFFFFF" d="M240.478,373.099c35.541,35.541,93.374,35.539,128.914-0.001l-13.702-13.703   c-27.985,27.985-73.521,27.986-101.506,0c-27.987-27.987-27.989-73.524-0.003-101.51l-13.702-13.701   C204.938,279.724,204.937,337.557,240.478,373.099"/>
	<path clip-path="url(#SVGID_2_)" fill="#FFFFFF" d="M322.349,291.229c9.6,9.599,9.598,25.22-0.004,34.821l13.702,13.703   c17.156-17.155,17.157-45.072,0.003-62.227c-17.154-17.155-45.071-17.154-62.227,0.002l13.703,13.702   C297.127,281.63,312.747,281.627,322.349,291.229"/>
	<path clip-path="url(#SVGID_2_)" fill="#FFFFFF" d="M273.825,339.753c17.154,17.154,45.067,17.155,62.223,0l-13.702-13.703   c-9.599,9.598-25.22,9.6-34.819,0.001c-9.601-9.602-9.599-25.222-0.001-34.82l-13.703-13.703   C256.667,294.685,256.669,322.597,273.825,339.753"/>
	
		<rect x="298.825" y="258.349" transform="matrix(0.7071 -0.7071 0.7071 0.7071 -84.4507 324.4435)" clip-path="url(#SVGID_2_)" fill="#2E313D" width="101.174" height="11.628"/>
	<polygon clip-path="url(#SVGID_2_)" fill="#585A64" points="403.705,209.635 413.369,173.577 381.937,205.01 381.938,205.012    372.274,241.065 372.594,240.984 404.023,209.554  "/>
	<polygon clip-path="url(#SVGID_2_)" fill="#2E313D" points="404.023,209.554 372.593,240.984 407.848,231.533 408.566,231.64    440,200.207 439.281,200.106  "/>
	<polygon clip-path="url(#SVGID_2_)" fill="#585A64" points="314.847,271.655 304.937,308.642 328.385,285.193  "/>
	<polygon clip-path="url(#SVGID_2_)" fill="#2E313D" points="304.936,308.642 341.921,298.729 328.385,285.193  "/>
	<path clip-path="url(#SVGID_2_)" fill="#FB8221" d="M222.789,193.831c-3.666,0.314-1.555-40.758-9.129-48.356   c-7.578-7.608-48.635-5.569-48.326-9.192c0.267-3.285,38.734-5.9,46.525-13.66c7.784-7.762,10.608-46.25,13.926-46.488   c3.596-0.261,3.188,39.419,10.518,46.771c7.332,7.362,46.918,6.816,46.765,10.269c-0.162,3.454-39.547,5.302-47.508,13.229   C227.596,154.341,226.035,193.538,222.789,193.831"/>
</g>
</svg>