<svg xmlns="http://www.w3.org/2000/svg" viewBox="0 0 106.61 124.23">
  <path fill="#1e8b66" d="M102.47 22.76L36.52 2.78c-3.1-.94-6.4.8-7.35 3.9l-27.27 90c-.95 3.1.8 6.37 3.9 7.3l65.96 20c3.1.93 6.38-.82 7.3-3.9l27.3-90c.93-3.1-.83-6.38-3.93-7.32z"/>
  <path fill="#bbbdbf" d="M77.43 117.54c-.94 3.1-4.22 4.84-7.32 3.9L4.2 101.46c-3.1-.94-4.85-4.22-3.9-7.32L27.52 4.16c.9-3.1 4.2-4.85 7.3-3.9l65.94 19.97c3.1.94 4.85 4.22 3.9 7.32l-27.26 90z"/>
  <path fill="#f4f4f4" d="M76.6 117.28c-.8 2.63-3.6 4.12-6.23 3.32l-65.96-20C1.8 99.8.3 97 1.1 94.4l27.26-90c.8-2.65 3.6-4.14 6.22-3.34l65.96 20c2.66.8 4.15 3.57 3.35 6.2l-27.3 90z"/>
  <path fill="#2c3a57" d="M29.13 6.78L102 28.95l-25.5 83.73L3.66 90.5z"/>
  <path fill="#f2f2f2" d="M101.98 28.94l-89.3 31.82 16.44-54" opacity=".17"/>
  <circle cx="38.64" cy="106.31" r="3.44" fill="#fff"/>
  <path fill="#343a54" d="M71.5 16.56l-10.16-3.1c-.1-.02-.13-.13-.1-.23v-.05c.05-.1.16-.16.26-.13l10.15 3.1c.1.02.16.13.13.23l-.02.05c-.02.1-.12.16-.23.13z"/>
  <circle cx="59.68" cy="12.74" r=".52" fill="#343a54"/>
</svg>